Supplementary Materials: Pilot Analysis
…
slopes  %>%
  summarise(mu = mean(D),
            sd = sd(D)) %>%
  mutate(method = str_remove(method, "D_"),
         slope = paste0("feature", feature1, "_", feature2, ":lnd"))

## `summarise()` has grouped output by 'feature1', 'feature2', 'method'. You can
## override using the `.groups` argument.

## # A tibble: 54 x 7
## # Groups:   feature1, feature2, method [27]
##    feature1 feature2 method              type      mu     sd slope              
##    <chr>    <chr>    <chr>               <chr>  <dbl>  <dbl> <chr>              
##  1 orange   circle   best feature        D     0.0809 0.0136 featureorange_circ~
##  2 orange   circle   best feature        Dp    0.150  0.0324 featureorange_circ~
##  3 orange   circle   collinear           D     0.0809 0.0136 featureorange_circ~
##  4 orange   circle   collinear           Dp    0.0845 0.0142 featureorange_circ~
##  5 orange   circle   orthogonal contrast D     0.0809 0.0136 featureorange_circ~
##  6 orange   circle   orthogonal contrast Dp    0.118  0.0203 featureorange_circ~
##  7 orange   diamond  best feature        D     0.0916 0.0180 featureorange_diam~
##  8 orange   diamond  best feature        Dp    0.147  0.0302 featureorange_diam~
##  9 orange   diamond  collinear           D     0.0916 0.0180 featureorange_diam~
## 10 orange   diamond  collinear           Dp    0.0810 0.0135 featureorange_diam~
## # ... with 44 more rows
